Object #0 ========================================
  Relative objects: {0, 1, 2, 3, 4, 5, 6, 7, 8, 9, 10, 11, 12, 13, 15, 16, 17, 18, 19, 20, 21, 22, 23, 24, 25, 26, 27, 28, 29, 30, 31, 32, 34, 35, 36, 37, 38, 39}  (len: 38)
  Compactness: 0.95
END Object #0 ====================================
Object #1 ========================================
  Relative objects: {0, 1, 2, 5, 6, 8, 11, 12, 13, 17, 19, 21, 22, 23, 24, 25, 26, 27, 28, 31, 34, 35, 38, 39}  (len: 24)
  Compactness: 0.6
END Object #1 ====================================
Object #2 ========================================
  Relative objects: {0, 1, 2, 4, 5, 6, 7, 8, 10, 11, 12, 13, 15, 17, 18, 19, 21, 22, 23, 24, 25, 26, 27, 28, 30, 31, 32, 34, 35, 36, 37, 38, 39}  (len: 33)
  Compactness: 0.825
END Object #2 ====================================
Object #3 ========================================
  Relative objects: {0, 3, 4, 5, 6, 8, 10, 15, 17, 19, 23, 25, 26, 27, 29, 36, 37, 38, 39}  (len: 19)
  Compactness: 0.475
END Object #3 ====================================
Object #4 ========================================
  Relative objects: {0, 3, 4, 5, 6, 7, 8, 9, 10, 11, 12, 14, 15, 17, 18, 19, 20, 21, 23, 25, 26, 27, 29, 30, 31, 32, 33, 34, 35, 36, 37, 38, 39}  (len: 33)
  Compactness: 0.825
END Object #4 ====================================
Object #5 ========================================
  Relative objects: {0, 1, 2, 3, 4, 5, 6, 7, 8, 9, 10, 11, 12, 13, 15, 16, 17, 18, 19, 20, 21, 22, 23, 24, 25, 26, 27, 28, 29, 30, 31, 32, 34, 35, 36, 37, 38, 39}  (len: 38)
  Compactness: 0.95
END Object #5 ====================================
Object #6 ========================================
  Relative objects: {0, 1, 2, 4, 5, 6, 7, 8, 10, 11, 12, 13, 15, 17, 18, 19, 21, 22, 23, 24, 25, 26, 27, 28, 29, 30, 31, 32, 34, 35, 36, 37, 38, 39}  (len: 34)
  Compactness: 0.85
END Object #6 ====================================
Object #7 ========================================
  Relative objects: {0, 2, 4, 5, 6, 7, 8, 9, 10, 11, 12, 17, 18, 19, 21, 22, 23, 25, 26, 27, 30, 31, 32, 34, 35, 36, 37, 38, 39}  (len: 29)
  Compactness: 0.725
END Object #7 ====================================
Object #8 ========================================
  Relative objects: {0, 1, 2, 4, 5, 6, 7, 8, 9, 10, 11, 12, 13, 15, 17, 18, 19, 20, 21, 22, 23, 24, 25, 26, 27, 28, 29, 30, 31, 32, 34, 35, 36, 37, 38, 39}  (len: 36)
  Compactness: 0.9
END Object #8 ====================================
Object #9 ========================================
  Relative objects: {0, 4, 5, 7, 8, 9, 11, 12, 17, 18, 20, 21, 23, 25, 27, 30, 31, 32, 34, 36, 37, 38, 39}  (len: 23)
  Compactness: 0.575
END Object #9 ====================================
Object #10 ========================================
  Relative objects: {0, 3, 4, 5, 6, 8, 10, 12, 15, 17, 19, 20, 21, 23, 24, 25, 26, 27, 28, 29, 31, 32, 34, 35, 36, 37, 38, 39}  (len: 28)
  Compactness: 0.7
END Object #10 ====================================
Object #11 ========================================
  Relative objects: {0, 2, 4, 5, 6, 7, 8, 9, 10, 11, 12, 13, 17, 18, 19, 20, 21, 22, 23, 24, 25, 26, 27, 28, 30, 31, 32, 34, 35, 36, 37, 38, 39}  (len: 33)
  Compactness: 0.825
END Object #11 ====================================
Object #12 ========================================
  Relative objects: {0, 1, 2, 4, 5, 6, 7, 8, 10, 11, 12, 13, 15, 17, 18, 19, 21, 22, 23, 24, 25, 26, 27, 28, 30, 31, 32, 34, 35, 36, 37, 38, 39}  (len: 33)
  Compactness: 0.825
END Object #12 ====================================
Object #13 ========================================
  Relative objects: {0, 1, 2, 4, 5, 6, 7, 8, 11, 12, 13, 17, 18, 19, 21, 22, 23, 24, 25, 26, 27, 28, 30, 31, 32, 34, 35, 37, 38, 39}  (len: 30)
  Compactness: 0.75
END Object #13 ====================================
Object #14 ========================================
  Relative objects: {0, 4, 5, 8, 9, 10, 14, 18, 20, 23, 25, 27, 29, 31, 32, 33, 34, 36, 37, 38, 39}  (len: 21)
  Compactness: 0.525
END Object #14 ====================================
Object #15 ========================================
  Relative objects: {0, 2, 3, 4, 5, 6, 8, 10, 12, 15, 16, 17, 19, 21, 23, 24, 25, 26, 27, 28, 29, 31, 32, 34, 35, 36, 37, 38, 39}  (len: 29)
  Compactness: 0.725
END Object #15 ====================================
Object #16 ========================================
  Relative objects: {0, 5, 6, 8, 10, 15, 16, 17, 19, 21, 24, 25, 26, 27, 28, 29, 35, 36, 38, 39}  (len: 20)
  Compactness: 0.5
END Object #16 ====================================
Object #17 ========================================
  Relative objects: {0, 1, 2, 4, 5, 6, 7, 8, 9, 10, 11, 12, 13, 15, 17, 18, 19, 21, 22, 23, 24, 25, 26, 27, 28, 29, 30, 31, 32, 34, 35, 36, 37, 38, 39}  (len: 35)
  Compactness: 0.875
END Object #17 ====================================
Object #18 ========================================
  Relative objects: {0, 2, 4, 5, 6, 7, 8, 9, 10, 11, 12, 17, 18, 19, 20, 21, 22, 23, 25, 26, 27, 30, 31, 32, 34, 35, 36, 37, 38, 39}  (len: 30)
  Compactness: 0.75
END Object #18 ====================================
Object #19 ========================================
  Relative objects: {0, 2, 3, 4, 5, 6, 8, 10, 11, 12, 15, 16, 17, 19, 21, 22, 23, 24, 25, 26, 27, 28, 29, 31, 32, 34, 35, 36, 37, 38, 39}  (len: 31)
  Compactness: 0.775
END Object #19 ====================================
Object #20 ========================================
  Relative objects: {0, 4, 5, 8, 9, 10, 14, 17, 18, 20, 23, 25, 26, 27, 29, 30, 31, 32, 33, 34, 36, 37, 38, 39}  (len: 24)
  Compactness: 0.6
END Object #20 ====================================
Object #21 ========================================
  Relative objects: {0, 1, 2, 4, 5, 6, 7, 8, 10, 11, 12, 13, 15, 17, 18, 19, 21, 22, 23, 24, 25, 26, 27, 28, 30, 31, 32, 34, 35, 36, 37, 38, 39}  (len: 33)
  Compactness: 0.825
END Object #21 ====================================
Object #22 ========================================
  Relative objects: {0, 1, 2, 4, 5, 6, 7, 8, 10, 11, 12, 13, 15, 17, 18, 19, 21, 22, 23, 24, 25, 26, 27, 28, 30, 31, 32, 34, 35, 36, 37, 38, 39}  (len: 33)
  Compactness: 0.825
END Object #22 ====================================
Object #23 ========================================
  Relative objects: {0, 2, 4, 5, 6, 7, 8, 9, 10, 11, 12, 13, 15, 17, 18, 19, 20, 21, 22, 23, 24, 25, 26, 27, 28, 29, 30, 31, 32, 34, 35, 36, 37, 38, 39}  (len: 35)
  Compactness: 0.875
END Object #23 ====================================
Object #24 ========================================
  Relative objects: {0, 1, 2, 4, 5, 6, 8, 10, 11, 12, 13, 15, 17, 19, 21, 22, 23, 24, 25, 26, 27, 28, 31, 32, 34, 35, 36, 37, 38, 39}  (len: 30)
  Compactness: 0.75
END Object #24 ====================================
Object #25 ========================================
  Relative objects: {0, 1, 2, 3, 4, 5, 6, 7, 8, 9, 10, 11, 12, 13, 15, 16, 17, 18, 19, 20, 21, 22, 23, 24, 25, 26, 27, 28, 29, 30, 31, 32, 34, 35, 36, 37, 38, 39}  (len: 38)
  Compactness: 0.95
END Object #25 ====================================
Object #26 ========================================
  Relative objects: {0, 1, 2, 3, 4, 5, 6, 8, 10, 11, 12, 13, 15, 16, 17, 19, 21, 22, 23, 24, 25, 26, 27, 28, 29, 31, 32, 34, 35, 36, 37, 38, 39}  (len: 33)
  Compactness: 0.825
END Object #26 ====================================
Object #27 ========================================
  Relative objects: {0, 2, 3, 4, 5, 6, 7, 8, 9, 10, 11, 12, 14, 15, 17, 18, 19, 20, 21, 22, 23, 24, 25, 26, 27, 28, 29, 30, 31, 32, 33, 34, 35, 36, 37, 38, 39}  (len: 37)
  Compactness: 0.925
END Object #27 ====================================
Object #28 ========================================
  Relative objects: {0, 1, 2, 4, 5, 6, 8, 10, 11, 12, 13, 15, 17, 19, 21, 22, 23, 24, 25, 26, 27, 28, 29, 31, 32, 34, 35, 36, 37, 38, 39}  (len: 31)
  Compactness: 0.775
END Object #28 ====================================
Object #29 ========================================
  Relative objects: {0, 3, 4, 5, 6, 8, 10, 15, 17, 19, 20, 21, 23, 25, 26, 27, 28, 29, 31, 32, 34, 35, 36, 37, 38, 39}  (len: 26)
  Compactness: 0.65
END Object #29 ====================================
Object #30 ========================================
  Relative objects: {0, 2, 4, 5, 6, 7, 8, 9, 10, 11, 12, 17, 18, 19, 20, 21, 22, 23, 25, 26, 27, 28, 30, 31, 32, 34, 35, 36, 37, 38, 39}  (len: 31)
  Compactness: 0.775
END Object #30 ====================================
Object #31 ========================================
  Relative objects: {0, 2, 4, 5, 6, 7, 8, 9, 10, 11, 12, 13, 15, 17, 18, 19, 20, 21, 22, 23, 24, 25, 26, 27, 28, 29, 30, 31, 32, 34, 35, 36, 37, 38, 39}  (len: 35)
  Compactness: 0.875
END Object #31 ====================================
Object #32 ========================================
  Relative objects: {0, 2, 4, 5, 6, 7, 8, 9, 10, 11, 12, 13, 15, 17, 18, 19, 20, 21, 22, 23, 24, 25, 26, 27, 28, 30, 31, 32, 34, 35, 36, 37, 38, 39}  (len: 34)
  Compactness: 0.85
END Object #32 ====================================
Object #33 ========================================
  Relative objects: {0, 4, 5, 8, 9, 14, 18, 20, 23, 25, 27, 31, 32, 33, 34, 36, 37, 38, 39}  (len: 19)
  Compactness: 0.475
END Object #33 ====================================
Object #34 ========================================
  Relative objects: {0, 2, 4, 5, 6, 7, 8, 9, 10, 11, 12, 13, 15, 17, 18, 19, 20, 21, 22, 23, 24, 25, 26, 27, 28, 29, 30, 31, 32, 34, 35, 36, 37, 38, 39}  (len: 35)
  Compactness: 0.875
END Object #34 ====================================
Object #35 ========================================
  Relative objects: {0, 1, 2, 4, 5, 6, 7, 8, 10, 11, 12, 13, 15, 17, 18, 19, 21, 22, 23, 24, 25, 26, 27, 28, 29, 30, 31, 32, 34, 35, 36, 37, 38, 39}  (len: 34)
  Compactness: 0.85
END Object #35 ====================================
Object #36 ========================================
  Relative objects: {0, 3, 4, 5, 6, 8, 10, 12, 15, 16, 17, 19, 20, 21, 23, 24, 25, 26, 27, 28, 29, 30, 31, 32, 34, 35, 36, 37, 38, 39}  (len: 30)
  Compactness: 0.75
END Object #36 ====================================
Object #37 ========================================
  Relative objects: {0, 2, 4, 5, 6, 7, 8, 9, 10, 11, 12, 14, 15, 17, 18, 19, 20, 21, 22, 23, 24, 25, 26, 27, 28, 29, 30, 31, 32, 33, 34, 35, 36, 37, 38, 39}  (len: 36)
  Compactness: 0.9
END Object #37 ====================================
Object #38 ========================================
  Relative objects: {0, 1, 2, 3, 4, 5, 6, 7, 8, 10, 11, 12, 13, 15, 16, 17, 18, 19, 21, 22, 23, 24, 25, 26, 27, 28, 29, 30, 31, 32, 34, 35, 36, 37, 38, 39}  (len: 36)
  Compactness: 0.9
END Object #38 ====================================
Object #39 ========================================
  Relative objects: {0, 1, 2, 4, 5, 6, 7, 8, 9, 10, 11, 12, 13, 15, 17, 18, 19, 21, 22, 23, 24, 25, 26, 27, 28, 29, 30, 31, 32, 34, 35, 36, 37, 38, 39}  (len: 35)
  Compactness: 0.875
END Object #39 ====================================
